s1-excel-15.cdn.office.net:HSTS	0	16569	1463141374948,1,0
gist.github.com:HSTS	13	16700	1473122008618,1,1
ytw5ka-bn1306.files.1drv.com:HSTS	0	16651	1470201527113,1,1
accounts.firefox.com:HSTS	5	16646	1453804658602,1,1
dropbox.com:HSTS	48	16700	1458227715410,1,1
public.bn1303.livefilestore.com:HSTS	4	16699	1474343165650,1,1
console.developers.google.com:HSTS	0	16672	1472022622797,1,0
sketch.pixiv.net:HSTS	0	16650	1470133714261,1,1
oauth.accounts.firefox.com:HSTS	3	16635	1452867019171,1,1
glitter-services.disqus.com:HSTS	4	16544	1429452595495,1,0
api.accounts.firefox.com:HSTS	129	16700	1458453701653,1,1
statici.icloud.com:HSTS	0	16662	1471139805431,1,1
pay-js.automattic.com:HSTS	6	16697	1474157417033,1,0
9w3drg.dm2302.livefilestore.com:HSTS	0	16652	1470313666314,1,1
my.iesaba.com:HSTS	0	16665	1755240775333,1,0
github.com:HPKP	84	16700	1442901937385,1,1,WoiWRyIOVNa9ihaBciRSC7XHjliYS9VwUGOIud4PB18=JbQbUG5JMJUoI6brnx0x3vZF6jilxsapbXGVfjhN8Fg=
security.google.com:HSTS	0	16656	1449973292811,1,1
g2.twimg.com:HSTS	1	16660	2070608400324,1,0
profile.accounts.firefox.com:HSTS	36	16679	1456629913887,1,1
skyapi.onedrive.live.com:HSTS	7	16688	1473392044142,1,1
adobeid-na1.services.adobe.com:HSTS	2	16693	1473856283461,1,1
upload.wikimedia.org:HSTS	29	16700	1474422011764,1,0
dump.bz:HSTS	0	16515	1458461223520,1,1
s-dal5-nss-19.firebaseio.com:HSTS	6	16599	1465738036242,1,1
kat.cr:HSTS	8	16665	1471413941163,1,1
i.github-camo.com:HSTS	0	16511	1458122459308,1,1
pypi.python.org:HPKP	0	16672	1440484394585,1,1,WoiWRyIOVNa9ihaBciRSC7XHjliYS9VwUGOIud4PB18=5C8kvU039KouVrl52D0eZSGf4Onjo4Khs8tmyTlV3nU=5C8kvU039KouVrl52D0eZSGf4Onjo4Khs8tmyTlV3nU=lCppFqbkrlJ3EcVFAkeip0+44VaoJUymbnOaEUk7tEU=TUDnr0MEoJ3of7+YliBMBVFB4/gJsv5zO7IxD9+YoWI=x4QzPSC810K5/cMjb05Qm4k3Bw5zBn4lTdO/nEW/Td4=
render.githubusercontent.com:HSTS	1	16696	1474117586368,1,0
ksp.sarbian.com:HSTS	2	16592	1465132534413,1,1
console.python.org:HSTS	2	16689	1757318656798,1,1
gyazo.com:HSTS	0	16699	1458389179785,1,0
9hzejq.bn1.livefilestore.com:HSTS	0	16610	1466695974905,1,1
creative.adobe.com:HSTS	0	16693	1473856282360,1,1
store.logmein.com:HSTS	17	16689	1473489034084,1,1
rollbar.com:HSTS	0	16667	1455612317182,1,0
s.basketbuild.com:HSTS	1	16678	1504054065898,1,1
stores.office.com:HSTS	0	16683	1456993900665,1,0
www.imageidentify.com:HSTS	0	16573	1495012137605,1,1
console.python.org:HPKP	2	16689	1444550656799,1,1,WoiWRyIOVNa9ihaBciRSC7XHjliYS9VwUGOIud4PB18=5C8kvU039KouVrl52D0eZSGf4Onjo4Khs8tmyTlV3nU=5C8kvU039KouVrl52D0eZSGf4Onjo4Khs8tmyTlV3nU=lCppFqbkrlJ3EcVFAkeip0+44VaoJUymbnOaEUk7tEU=TUDnr0MEoJ3of7+YliBMBVFB4/gJsv5zO7IxD9+YoWI=x4QzPSC810K5/cMjb05Qm4k3Bw5zBn4lTdO/nEW/Td4=
qemuog.bn1.livefilestore.com:HSTS	1	16699	1474373948855,1,1
asciinema.org:HSTS	0	16608	1450729506160,1,0
support.mozilla.org:HPKP	5	16676	1442134678803,1,0,r/mIkG3eEpVdm+u/ko/cwxzOMo1bk4TyHIlByibiA5E=WoiWRyIOVNa9ihaBciRSC7XHjliYS9VwUGOIud4PB18=
www.kerbalstuff.com:HSTS	1	16621	1451611713053,1,0
avatars2.githubusercontent.com:HSTS	45	16700	1474453962789,1,0
ja.wikipedia.org:HSTS	28	16700	1474422012746,1,1
basketbuild.com:HSTS	0	16678	1504053880466,1,1
s-dal5-nss-28.firebaseio.com:HSTS	0	16629	1468351900643,1,1
maji-production-herokuapp-com.global.ssl.fastly.net:HSTS	0	16667	1471571867677,1,0
xz44qg.by3302.livefilestore.com:HSTS	0	16664	1471341133995,1,1
torrentz.eu:HSTS	0	16544	1460970650850,1,1
pledgie.com:HSTS	0	16680	1472712255056,1,0
support.cdn.mozilla.net:HPKP	5	16676	1442134680173,1,0,r/mIkG3eEpVdm+u/ko/cwxzOMo1bk4TyHIlByibiA5E=WoiWRyIOVNa9ihaBciRSC7XHjliYS9VwUGOIud4PB18=
support.mozilla.org:HSTS	15	16676	1472374678802,1,0
osu.ppy.sh:HSTS	3	16682	1441462169522,1,0
greasyfork.org:HSTS	162	16700	1474430038737,1,0
ws.peer5.com:HSTS	1	16678	1504053894360,1,1
talkgadget.google.com:HSTS	13	16698	1453616198701,1,1
mega.co.nz:HSTS	91	16685	1504701997846,1,1
services.addons.mozilla.org:HSTS	180	16699	1474379843390,1,0
openuserjs.org:HSTS	62	16699	1451483846597,1,1
ttv-23.firebaseio.com:HSTS	0	16557	1462114359104,1,1
qo8xcg.by3301.livefilestore.com:HSTS	0	16563	1462614341026,1,1
trello.com:HSTS	0	16621	1451836096197,1,0
codeload.github.com:HSTS	5	16644	1469625201520,1,0
www.python.org:HPKP	2	16689	1441959266108,1,1,WoiWRyIOVNa9ihaBciRSC7XHjliYS9VwUGOIud4PB18=5C8kvU039KouVrl52D0eZSGf4Onjo4Khs8tmyTlV3nU=5C8kvU039KouVrl52D0eZSGf4Onjo4Khs8tmyTlV3nU=lCppFqbkrlJ3EcVFAkeip0+44VaoJUymbnOaEUk7tEU=TUDnr0MEoJ3of7+YliBMBVFB4/gJsv5zO7IxD9+YoWI=x4QzPSC810K5/cMjb05Qm4k3Bw5zBn4lTdO/nEW/Td4=
ak3.boxcdn.net:HSTS	0	16522	1427523714781,1,0
cloudup.com:HSTS	0	16533	101428460447488,1,1
www.dntx.com:HSTS	1	16557	1462109634331,1,0
mega.nz:HSTS	6	16685	1504702000271,1,1
app.box.com:HSTS	0	16698	1442712987349,1,1
pixel.facebook.com:HSTS	3	16699	1458379452234,1,0
my.charitywater.org:HSTS	0	16667	1471571870545,1,0
www.sandbox.paypal.com:HSTS	0	16679	1441120626358,1,0
session.wikispaces.com:HSTS	4	16606	1466349109091,1,1
f-droid.org:HSTS	0	16583	1464346710015,1,1
www.facebook.com:HSTS	188	16700	1458453640891,1,0
eset-acs.accesscontrol.windows.net:HSTS	0	16560	1462321722693,1,1
cdn.syndication.twimg.com:HSTS	168	16700	2074039384858,1,0
s-dal5-nss-30.firebaseio.com:HSTS	0	16557	1462114363462,1,1
login.yahoo.com:HSTS	0	16569	1447162914276,1,0
d2oher2uhvl0ur.cloudfront.net:HSTS	0	16590	1464973620229,1,0
packagecontrol.io:HSTS	4	16683	1456992840781,1,0
takkun702.visualstudio.com:HSTS	0	16647	1469864278163,1,1
icloud.com:HSTS	0	16662	1471139706848,1,1
slack-files.com:HSTS	0	16521	1458983614270,1,1
accounts.paradoxplaza.com:HSTS	2	16639	1469173876765,1,0
blog.lastpass.com:HSTS	0	16603	1520939647268,1,0
ak1.boxcdn.net:HSTS	0	16522	1459058713791,1,0
cdn.api.twitter.com:HSTS	114	16699	2073982853119,1,0
upload.twitter.com:HSTS	28	16699	2073984877568,1,0
i.gyazo.com:HSTS	0	16699	1458389179400,1,0
www.transifex.com:HSTS	0	16667	1455828531756,1,1
tfsprodch1acs01.accesscontrol.windows.net:HSTS	1	16686	1473251361917,1,1
eugp1a-ch3302.files.1drv.com:HSTS	0	16559	1462242443001,1,1
feedthebeast.atlassian.net:HSTS	0	16637	1752812815318,1,1
api.travis-ci.org:HSTS	0	16618	1467376846741,1,0
lessthan3.firebaseio.com:HSTS	0	16629	1468351897686,1,1
buttons.reddit.com:HSTS	2	16689	1457525281208,1,1
ttv-25.firebaseio.com:HSTS	0	16519	1458833648869,1,1
ttv-1.firebaseio.com:HSTS	0	16559	1462265765883,1,1
pxlxiq.sn2.livefilestore.com:HSTS	3	16699	1474343164175,1,1
beta.kerbalstuff.com:HSTS	0	16673	1456133789228,1,0
www.cloudflare.com:HSTS	0	16687	1473306322135,1,0
s1-word-view-15.cdn.office.net:HSTS	1	16664	1471341145633,1,0
vivaldi.com:HSTS	0	16633	1468657186822,1,0
secure.logmein.com:HSTS	18	16700	1474437660914,1,0
platform.vine.co:HSTS	0	16632	2068194404441,1,0
p28-fmipweb.icloud.com:HSTS	0	16662	1471139851462,1,1
photos.google.com:HSTS	3	16669	1451098867339,1,0
takkun702.vssps.visualstudio.com:HSTS	0	16647	1469864275663,1,1
ttv-22.firebaseio.com:HSTS	0	16595	1465410556405,1,1
notify.files.acrobat.com:HSTS	0	16557	1462081479191,1,1
discussions.apple.com:HSTS	0	16525	1430384318998,1,1
update.userstyles.org:HSTS	148	16699	1474379847154,1,0
www.instapaper.com:HSTS	0	16519	1458817061925,1,1
community.apachefriends.org:HSTS	0	16696	1505657372807,1,1
wut.smartscreen.microsoft.com:HSTS	0	16587	1448874207040,1,1
atom.io:HSTS	1	16578	2063515473417,1,0
s-dal5-nss-15.firebaseio.com:HSTS	0	16559	1462265768614,1,1
d16zszyyqlzz6z.cloudfront.net:HSTS	0	16696	1505654979675,1,1
lastpass.com:HSTS	188	16700	1529301701667,1,0
api.booth.pm:HSTS	0	16692	1473764704340,1,0
ttv-7.firebaseio.com:HSTS	3	16621	1467649747994,1,1
avatars1.githubusercontent.com:HSTS	38	16700	1474453941684,1,0
ads.twitter.com:HSTS	3	16697	2073778534064,1,0
www.behance.net:HSTS	1	16689	1468146973698,1,0
cloudflare.statuspage.io:HSTS	0	16687	1444362283541,1,0
eugp1a-bn1306.files.1drv.com:HSTS	0	16559	1462242421496,1,1
login.skype.com:HSTS	4	16681	1472813201504,1,1
bitcoinfoundation.zendesk.com:HSTS	0	16653	1470406645912,1,0
player.vimeo.com:HSTS	1	16687	1456893028492,1,1
assets.gyazo.com:HSTS	0	16699	1458389113475,1,0
www.python.org:HSTS	2	16689	1505030666107,1,1
github.com:HSTS	117	16700	1474437637384,1,1
store.google.com:HSTS	0	16585	1443841361604,1,1
userstyles.org:HSTS	30	16700	1474261337451,1,0
www.phpmyadmin.net:HSTS	0	16696	1474123682841,1,0
appdev.microsoft.com:HSTS	0	16671	1471943634537,1,1
stacksocial-production-stacksocial.netdna-ssl.com:HSTS	0	16678	1472517872703,1,0
dev.opera.com:HSTS	0	16659	1470923496573,1,0
cloud.blender.org:HSTS	0	16606	1450766791580,1,1
www.graphicsprings.com:HSTS	0	16680	1472711916092,1,0
cid-957d4646f7558e58.users.storage.live.com:HSTS	0	16569	1463141442837,1,1
www.apachefriends.org:HSTS	0	16696	1505655104492,1,1
vimeo.com:HSTS	0	16687	1456892768212,1,1
kzgfma.blu.livefilestore.com:HSTS	0	16610	1466695973503,1,1
faya7w-bn1ap000.files.1drv.com:HSTS	0	16688	1473392043929,1,1
sdp.peer5.com:HSTS	0	16550	1493005068501,1,1
live.github.com:HSTS	66	16700	1474432367114,1,0
dtfpya-sn3302.files.1drv.com:HSTS	0	16606	1466346932298,1,1
www.authy.com:HSTS	0	16580	1464101866136,1,1
ttv-5.firebaseio.com:HSTS	11	16697	1474196372784,1,1
www.androidfilehost.com:HSTS	2	16678	1504054485439,1,0
login.persona.org:HSTS	11	16700	1453774875115,1,1
2p66nmmycsj3.statuspage.io:HSTS	0	16672	1443075795387,1,0
app.bitnamihosting.com:HSTS	0	16696	1474122070140,1,0
donate.charitywater.org:HSTS	0	16678	1472544780259,1,0
support.cloudflare.com:HSTS	0	16687	1441856683342,1,0
p28-contactsws.icloud.com:HSTS	0	16662	1471139774034,1,1
androplus.org:HSTS	1	16618	1467355958833,1,0
www.jamendo.com:HSTS	0	16610	1437729588982,1,0
medium.com:HSTS	2	16689	1455850436213,1,1
evernote.com:HSTS	62	16700	1472302544781,1,0
docs.google.com:HSTS	23	16687	1442922886893,1,1
ravenholm.steamdb.info:HSTS	1	16671	1455956608071,1,1
s-dal5-nss-21.firebaseio.com:HSTS	2	16595	1465410521762,1,1
pimg.togetter.com:HSTS	1	16684	1473060704772,1,1
store.office.com:HSTS	0	16686	1457267354739,1,0
ecosystem.atlassian.net:HSTS	0	16667	1755420232512,1,1
bn1301files.storage.live.com:HSTS	1	16664	1471310833261,1,1
pnpcptp8xh9k.statuspage.io:HSTS	0	16618	1438432845862,1,0
inbox.google.com:HSTS	20	16698	1453616192666,1,1
flattr.com:HSTS	12	16700	1457844243047,1,0
account.cyanogenmod.org:HSTS	0	16697	1505742847582,1,0
history.google.com:HSTS	0	16656	1470623388303,1,0
api-mlxprod.microsoft.com:HSTS	0	16680	1441179857959,1,0
feedbackws.icloud.com:HSTS	0	16662	1471139853623,1,1
spotify.com:HSTS	0	16580	1464094698545,1,0
tumblr.com:HSTS	44	16700	1448112324836,1,0
4727608.fls.doubleclick.net:HSTS	7	16698	1442761350646,1,0
mods.io:HSTS	0	16697	1474180134309,1,0
marketplace.atlassian.com:HSTS	0	16667	1471596257308,1,0
avatars.githubusercontent.com:HSTS	12	16692	1473777188567,1,0
qttabbar.backlog.jp:HSTS	0	16678	1472532663072,1,0
apps.skypeassets.com:HSTS	2	16681	1449053202460,1,0
widget.intercom.io:HSTS	14	16689	1473489034391,1,0
karting.lbp.me:HSTS	0	16550	1461486610159,1,0
itunes.apple.com:HSTS	43	16700	1474113202020,1,0
www.sarbian.com:HSTS	0	16620	1499092033351,1,0
reddit.com:HSTS	3	16677	1456484376419,1,1
goo.gl:HSTS	12	16699	1453598547037,1,0
typekit.com:HSTS	7	16697	1469870672188,1,0
code.launchpad.net:HSTS	0	16569	1447199468287,1,0
www.patreon.com:HSTS	24	16687	1473166139476,1,1
addons.cdn.mozilla.net:HSTS	48	16700	1474429982926,1,0
addons.mozilla.org:HSTS	55	16700	1474429982381,1,0
multicraft.mcprohosting.com:HSTS	1	16697	1474211316657,1,0
www.picopico.tv:HSTS	0	16655	1470566013139,1,1
www.twilio.com:HSTS	0	16697	1458434596327,1,0
c.bay.livefilestore.com:HSTS	0	16686	1473251354740,1,1
apis.google.com:HSTS	188	16700	1453788074771,1,0
confluence.atlassian.com:HSTS	0	16660	1470967017932,1,0
support.steampowered.com:HSTS	7	16689	1463491715955,1,0
wiki.archlinux.org:HSTS	0	16525	1443868359809,1,0
mp3juices.is:HSTS	0	16650	1470141026861,1,1
support.google.com:HSTS	4	16672	1472022084535,1,1
public-dm2306.files.1drv.com:HSTS	2	16698	1474293556623,1,1
www.jitec.ipa.go.jp:HSTS	2	16573	1447708679272,1,0
camo.githubusercontent.com:HSTS	22	16700	1474424514951,1,1
neosmart.net:HSTS	0	16686	1442320344796,1,0
cdn.apple-mapkit.com:HSTS	0	16662	1471139798697,1,1
raw.githubusercontent.com:HSTS	187	16700	1474430064602,1,0
s-dal5-nss-17.firebaseio.com:HSTS	0	16595	1465410552122,1,1
createpdf.acrobat.com:HSTS	0	16557	1462081623622,1,1
download.cyanogenmod.org:HSTS	0	16697	1505743180827,1,0
pvp.minecraft.jp:HSTS	0	16618	1437048009976,1,0
api-ping.intercom.io:HSTS	13	16689	1473489035128,1,0
onedrive.live.com:HSTS	12	16697	1473392049006,1,0
tweetdeck.twitter.com:HSTS	18	16620	2067118976284,1,0
wallet.google.com:HSTS	0	16585	1464490882546,1,1
notice.ms.yahoo.co.jp:HSTS	1	16571	1447287060491,1,0
api.github.com:HSTS	74	16700	1474432367297,1,1
m1.behance.net:HSTS	0	16521	1458985209159,1,0
boxopus.com:HSTS	3	16533	1444033757539,1,0
jp.pinterest.com:HSTS	0	16629	1468354090618,1,0
bitbucket.org:HSTS	10	16700	1474337663486,1,0
licensing.jamendo.com:HSTS	0	16610	1437729507213,1,0
account.services.mozilla.com:HSTS	0	16569	1747007470578,1,0
cloud.google.com:HSTS	1	16672	1472022650618,1,1
www.paypal.com:HSTS	85	16700	1505961414461,1,0
www.sourcetreeapp.com:HSTS	3	16689	1473488703282,1,0
word-view.officeapps.live.com:HSTS	0	16569	1463141426312,1,0
dev.windowsphone.com:HSTS	1	16686	1473251354587,1,1
js.braintreegateway.com:HSTS	4	16672	1472014657791,1,0
secure1.store.apple.com:HSTS	0	16655	1470575667881,1,1
aay57g-dm2306.files.1drv.com:HSTS	0	16647	1469870263565,1,1
checkout.stripe.com:HSTS	24	16700	1474458599585,1,1
bugzilla.mozilla.org:HSTS	2	16648	1462373479994,1,1
eugp1a.bn1304.livefilestore.com:HSTS	0	16559	1462242386209,1,1
metrics.evernote.com:HSTS	2	16551	1461547337207,1,0
collector.githubapp.com:HSTS	0	16700	1474437638773,1,0
s-dal5-nss-36.firebaseio.com:HSTS	4	16697	1474196378508,1,1
s-dal5-nss-27.firebaseio.com:HSTS	0	16519	1458833658156,1,1
gpmxvw.bn1304.livefilestore.com:HSTS	0	16619	1467456398926,1,1
files.acrobat.com:HSTS	0	16557	1462081616715,1,1
blog.twitter.com:HSTS	0	16557	2061711373842,1,0
accounts.logme.in:HSTS	18	16700	1474437658873,1,1
t7efeq.bn1.livefilestore.com:HSTS	0	16586	1464577718727,1,1
p28-calendarws.icloud.com:HSTS	0	16662	1471139732951,1,1
input.mozilla.org:HPKP	2	16618	1437139261161,1,0,r/mIkG3eEpVdm+u/ko/cwxzOMo1bk4TyHIlByibiA5E=WoiWRyIOVNa9ihaBciRSC7XHjliYS9VwUGOIud4PB18=
book.mynavi.jp:HSTS	0	16515	1427029458338,1,0
plugins.mozilla.org:HSTS	0	16571	1463273518715,1,1
crafatar.com:HSTS	0	16663	1442320272813,1,0
support.skype.com:HSTS	3	16678	1469342925653,1,1
unsplash.com:HSTS	0	16622	1467709051628,1,0
api.twitter.com:HSTS	151	16700	2074032721598,1,0
dev.twitter.com:HSTS	1	16674	2057448550974,1,0
kerbalstuff.com:HSTS	12	16675	1456281504849,1,0
www.pinterest.com:HSTS	2	16650	1468354162458,1,0
p.client.hip.live.com:HSTS	0	16587	1448874121514,1,1
travis-ci.org:HSTS	0	16618	1467376841396,1,0
www.box.com:HSTS	1	16698	1459058713144,1,0
www.evernote.com:HSTS	12	16688	1466668944947,1,0
commerce.microsoft.com:HSTS	0	16697	1458348329663,1,1
embed.gyazo.com:HSTS	1	16699	1458390292296,1,0
cloud.mail.ru:HSTS	0	16679	1456868150662,1,1
easylist-downloads.adblockplus.org:HSTS	55	16697	1474201596215,1,0
ezimg.it:HSTS	0	16544	1460970841006,1,0
setup.icloud.com:HSTS	0	16662	1471139797699,1,1
cid-8fcbf528d6d70316.users.storage.live.com:HSTS	6	16686	1473257611311,1,1
web.skype.com:HSTS	1	16681	1472813199185,1,0
kinarino.jp:HSTS	0	16629	1468332849776,1,0
travis-ci-org.global.ssl.fastly.net:HSTS	0	16618	1467376846528,1,0
p28-keyvalueservice.icloud.com:HSTS	0	16662	1471139730919,1,1
qwjfsa.blu.livefilestore.com:HSTS	2	16698	1474293555412,1,1
s1-onenote-15.cdn.office.net:HSTS	0	16569	1463141395783,1,0
developers.google.com:HSTS	1	16672	1472022656727,1,1
vine.co:HSTS	11	16676	2071997240082,1,0
www.tumblr.com:HSTS	8	16694	1448189715224,1,0
plus.google.com:HSTS	179	16700	1453787265616,1,0
discussionsjapan.apple.com:HSTS	2	16655	1441631608638,1,1
www.mapbox.com:HSTS	0	16621	1467615465899,1,1
static.login.persona.org:HSTS	2	16605	1445610050704,1,1
unsplash.it:HSTS	3	16664	1471311078186,1,1
mail.google.com:HSTS	42	16689	1452836660309,1,1
blocklist.addons.mozilla.org:HSTS	179	16699	1474379962788,1,0
xp.apple.com:HSTS	14	16696	1474113205154,1,0
s1-word-edit-15.cdn.office.net:HSTS	0	16569	1463141446407,1,0
ak2.boxcdn.net:HSTS	0	16522	1459058713790,1,0
kickass.to:HSTS	12	16665	1462348610376,1,1
p28-remindersws.icloud.com:HSTS	0	16662	1471139733029,1,1
minecraft.jp:HSTS	0	16697	1443884106802,1,0
www.icloud.com:HSTS	2	16696	1471139802728,1,1
forum.userstyles.org:HSTS	1	16525	1459335429189,1,0
s1-officeapps-15.cdn.office.net:HSTS	1	16664	1471341148345,1,0
secure-login.twitch.tv:HSTS	3	16621	1467628836520,1,0
s1-powerpoint-15.cdn.office.net:HSTS	0	16569	1463141385738,1,0
avatars3.githubusercontent.com:HSTS	33	16700	1474453977559,1,0
syndication.twitter.com:HSTS	162	16700	2074039354309,1,0
p28-pushws.icloud.com:HSTS	0	16662	1471139802681,1,1
myaccount.google.com:HSTS	1	16656	1449974050472,1,1
analytics.twitter.com:HSTS	46	16699	2073976171824,1,0
js.stripe.com:HSTS	1	16620	1467555591662,1,1
static.unsplash.com:HSTS	0	16622	1467709044975,1,0
cf.dropboxstatic.com:HSTS	30	16699	1458365652170,1,1
fillsign.acrobat.com:HSTS	0	16557	1462081615678,1,1
lbp.me:HSTS	7	16573	1463478736764,1,0
p28-contacts.icloud.com:HSTS	0	16662	1471139745403,1,1
cloud.acrobat.com:HSTS	0	16557	1462082397067,1,1
d13yacurqjgara.cloudfront.net:HSTS	0	16517	1458629940904,1,0
gelb530n001.karere.mega.nz:HSTS	1	16684	1457316108480,1,0
www.udacity.com:HSTS	0	16569	1436792868485,1,1
scu.p.client.hip.live.com:HSTS	0	16587	1448874122021,1,1
connect.facebook.net:HSTS	89	16700	1458453674062,1,0
glitter.services.disqus.com:HSTS	47	16700	1442897527104,1,0
skydrive.live.com:HSTS	5	16688	1473392036546,1,0
tracker.smartseminar.jp:HSTS	0	16681	1756644787907,1,0
www.ruby-lang.org:HSTS	0	16659	1470925583894,1,0
cdn.syndication.twitter.com:HSTS	188	16700	2074039574130,1,0
ttv-3.firebaseio.com:HSTS	0	16595	1465410521583,1,1
marketplace-cdn.atlassian.com:HSTS	0	16667	1471596246099,1,0
v.cdn.vine.co:HSTS	8	16676	1456410618961,1,0
avatars0.githubusercontent.com:HSTS	72	16700	1474453966061,1,0
app.vssps.visualstudio.com:HSTS	0	16647	1469864274898,1,1
d37gvrvc0wt4s1.cloudfront.net:HSTS	6	16693	1457858462529,1,0
pypi.python.org:HSTS	1	16689	1472019794584,1,1
s-dal5-nss-23.firebaseio.com:HSTS	0	16595	1465410574601,1,1
p28-ckdatabasews.icloud.com:HSTS	0	16662	1471139798665,1,1
www.twitter.com:HSTS	14	16692	2071968368694,1,0
www.dropbox.com:HSTS	48	16699	1458365672920,1,1
stats.g.doubleclick.net:HSTS	44	16700	1453788069740,1,0
dribbble.com:HSTS	1	16557	1462110059773,1,0
event.atmarkit.co.jp:HSTS	2	16648	1469972512920,1,0
api.wordpress.org:HSTS	0	16666	1439943087875,1,0
b.stripecdn.com:HSTS	0	16580	1464103369662,1,1
html5test.com:HSTS	0	16615	1451327463420,1,0
ton.twitter.com:HSTS	3	16697	2073778534400,1,0
www.thinglink.com:HSTS	0	16686	1457276129694,1,0
twitter.com:HSTS	188	16700	2074040144927,1,0
www.kickstarter.com:HSTS	0	16590	1464973619305,1,0
steamdb.info:HSTS	17	16684	1456731424112,1,1
gist.github.com:HPKP	3	16685	1441586308620,1,1,WoiWRyIOVNa9ihaBciRSC7XHjliYS9VwUGOIud4PB18=JbQbUG5JMJUoI6brnx0x3vZF6jilxsapbXGVfjhN8Fg=
mtc.cdn.vine.co:HSTS	5	16676	1456410722150,1,0
open.spotify.com:HSTS	0	16580	1464094690536,1,0
api.skype.com:HSTS	2	16664	1447581141615,1,0
accounts.google.com:HSTS	119	16700	1453781840423,1,1
www.reddit.com:HSTS	4	16696	1456484376545,1,1
about.twitter.com:HSTS	1	16660	2070608439471,1,0
s-dal5-nss-37.firebaseio.com:HSTS	0	16621	1467649762556,1,1
