1442901700955	Sync.Service	INFO	Loading Weave 1.42.0
1442901700957	Sync.Engine.Clients	DEBUG	Engine initialized
1442901700958	Sync.Engine.Clients	DEBUG	Resetting clients last sync time
1442901700962	Sync.Engine.Bookmarks	DEBUG	Engine initialized
1442901700965	Sync.Engine.Forms	DEBUG	Engine initialized
1442901700967	Sync.Engine.History	DEBUG	Engine initialized
1442901700970	Sync.Engine.Passwords	DEBUG	Engine initialized
1442901700972	Sync.Engine.Prefs	DEBUG	Engine initialized
1442901700975	Sync.Engine.Tabs	DEBUG	Engine initialized
1442901700975	Sync.Engine.Tabs	DEBUG	Resetting tabs last sync time
1442901700979	Sync.Engine.Addons	DEBUG	Engine initialized
1442901700980	Sync.Service	INFO	Mozilla/5.0 (Windows NT 10.0; WOW64; rv:40.0) Gecko/20100101 Firefox/40.0
1442901700982	Sync.SyncScheduler	DEBUG	Clearing sync triggers and the global score.
1442901700983	Sync.Status	DEBUG	Status.service: success.status_ok => success.status_ok
1442901700983	Sync.Service	DEBUG	Caching URLs under storage user base: https://sync-211-us-west-2.sync.services.mozilla.com/1.5/21564172/
1442901700983	Sync.Status	DEBUG	Status.service: success.status_ok => success.status_ok
1442901700983	Sync.AddonsReconciler	INFO	Registering as Add-on Manager listener.
1442901700984	Sync.AddonsReconciler	DEBUG	Adding change listener.
1442901700984	Sync.Tracker.History	INFO	Adding Places observer.
1442901701028	Sync.Engine.Greasemonkey	DEBUG	Engine initialized
1442901701029	Sync.Status	DEBUG	Status.service: success.status_ok => success.status_ok
1442901701179	FirefoxAccounts	DEBUG	got keyPair
1442901701180	FirefoxAccounts	DEBUG	getCertificateSigned: true true
1442901701654	Hawk	DEBUG	(Response) /certificate/sign: code: 200 - Status text: OK
1442901701654	Sync.RESTResponse	TRACE	Processing response headers.
1442901701655	Hawk	DEBUG	Clock offset vs https://api.accounts.firefox.com/v1: 1345
1442901701655	FirefoxAccounts	DEBUG	getCertificate got a new one: true
1442901701655	FirefoxAccounts	DEBUG	getAssertionFromCert
1442901701657	FirefoxAccounts	DEBUG	getAssertionFromCert returning signed: true
1442901701657	Sync.BrowserIDManager	DEBUG	Getting a token
1442901701657	Common.TokenServerClient	DEBUG	Beginning BID assertion exchange: https://token.services.mozilla.com/1.0/sync/1.5
1442901702137	Common.TokenServerClient	DEBUG	Got token response: 200
1442901702137	Sync.RESTResponse	TRACE	Processing response headers.
1442901702137	Common.TokenServerClient	DEBUG	Successful token response
1442901702137	Sync.BrowserIDManager	DEBUG	Successfully got a sync token
1442901702139	Sync.BulkKeyBundle	INFO	BulkKeyBundle being created for undefined
1442901702139	Sync.BrowserIDManager	INFO	Background fetch for key bundle done
1442901702139	Sync.Status	DEBUG	Status.login: success.login => success.login
1442901702139	Sync.Status	DEBUG	Status.service: success.status_ok => success.status_ok
1442901705030	Sync.Status	DEBUG	Status.service: success.status_ok => success.status_ok
1442901705030	Sync.Service	DEBUG	User-Agent: Firefox/40.0.3 FxSync/1.42.0.20150826023504.
1442901705030	Sync.Service	INFO	Starting sync at 2015-09-22 15:01:45
1442901705030	Sync.Service	DEBUG	In sync: should login.
1442901705031	Sync.Status	DEBUG	Status.service: success.status_ok => success.status_ok
1442901705031	Sync.Status	DEBUG	Status.service: success.status_ok => success.status_ok
1442901705032	Sync.Service	INFO	Logging in the user.
1442901705032	Sync.Service	DEBUG	Caching URLs under storage user base: https://sync-211-us-west-2.sync.services.mozilla.com/1.5/21564172/
1442901705032	Sync.BrowserIDManager	DEBUG	unlockAndVerifyAuthState already has (or can fetch) sync keys
1442901705034	Sync.Service	DEBUG	Fetching unlocked auth state returned success.status_ok
1442901705036	Sync.BrowserIDManager	DEBUG	_ensureValidToken already has one
1442901705535	Sync.Resource	DEBUG	mesg: GET success 200 https://sync-211-us-west-2.sync.services.mozilla.com/1.5/21564172/info/collections
1442901705535	Sync.Resource	DEBUG	GET success 200 https://sync-211-us-west-2.sync.services.mozilla.com/1.5/21564172/info/collections
1442901705536	Sync.Service	DEBUG	Fetching global metadata record
1442901705536	Sync.RecordManager	TRACE	Importing record: https://sync-211-us-west-2.sync.services.mozilla.com/1.5/21564172/storage/meta/global
1442901705537	Sync.BrowserIDManager	DEBUG	_ensureValidToken already has one
1442901705896	Sync.Resource	DEBUG	mesg: GET success 200 https://sync-211-us-west-2.sync.services.mozilla.com/1.5/21564172/storage/meta/global
1442901705896	Sync.Resource	DEBUG	GET success 200 https://sync-211-us-west-2.sync.services.mozilla.com/1.5/21564172/storage/meta/global
1442901705896	Sync.Service	DEBUG	Clearing cached meta record. metaModified is undefined, setting to 1431647362.25
1442901705896	Sync.RecordManager	TRACE	Importing record: https://sync-211-us-west-2.sync.services.mozilla.com/1.5/21564172/storage/meta/global
1442901705897	Sync.BrowserIDManager	DEBUG	_ensureValidToken already has one
1442901706245	Sync.RecordManager	DEBUG	Failed to import record: Error: App. Quitting (resource://services-sync/resource.js:409:18) JS Stack trace: waitForSyncCallback@async.js:101:12 < Res__request@resource.js:405:14 < Res_get@resource.js:429:12 < RecordMgr_import@record.js:228:23 < RecordMgr_get@record.js:249:12 < _remoteSetup@service.js:1096:21 < verifyLogin@service.js:745:15 < onNotify@service.js:1011:12 < WrappedNotify@util.js:148:21 < WrappedLock@util.js:103:16 < WrappedCatch@util.js:77:16 < login@service.js:1022:12 < sync/<@service.js:1272:14 < WrappedCatch@util.js:77:16 < sync@service.js:1268:5 < Res_get@resource.js:429:12 < RecordMgr_import@record.js:228:23 < RecordMgr_get@record.js:249:12 < _remoteSetup@service.js:1096:21 < verifyLogin@service.js:745:15 < onNotify@service.js:1011:12 < WrappedNotify@util.js:148:21 < WrappedLock@util.js:103:16 < WrappedCatch@util.js:77:16 < login@service.js:1022:12 < sync/<@service.js:1272:14 < WrappedCatch@util.js:77:16 < sync@service.js:1268:5
1442901706245	Sync.Service	DEBUG	No meta/global record on the server. Creating one.
1442901706248	Sync.BrowserIDManager	DEBUG	_ensureValidToken already has one
1442901706248	Sync.BrowserIDManager	ERROR	Failed to fetch a token for authentication: [Exception... "App. Quitting"  nsresult: "0x80004004 (NS_ERROR_ABORT)"  location: "JS frame :: resource://services-common/async.js :: checkAppReady/onQuitApplication/Async.checkAppReady :: line 126"  data: no] Stack trace: checkAppReady/onQuitApplication/Async.checkAppReady()@resource://services-common/async.js:126 < waitForSyncCallback()@resource://services-common/async.js:101 < makeSpinningCallback/callback.wait()@resource://services-common/async.js:145 < this.BrowserIDManager.prototype._getAuthenticationHeader()@resource://gre/modules/services-sync/browserid_identity.js:656 < Res__createRequest()@resource://services-sync/resource.js:175 < _doRequest()@resource://services-sync/resource.js:200 < Res__request()@resource://services-sync/resource.js:404 < Res_put()@resource://services-sync/resource.js:436 < upload()@resource://services-sync/record.js:62 < _remoteSetup()@resource://gre/modules/services-sync/service.js:1116 < verifyLogin()@resource://gre/modules/services-sync/service.js:745 < onNotify()@resource://gre/modules/services-sync/service.js:1011 < WrappedNotify()@resource://services-sync/util.js:148 < WrappedLock()@resource://services-sync/util.js:103 < WrappedCatch()@resource://services-sync/util.js:77 < login()@resource://gre/modules/services-sync/service.js:1022 < sync/<()@resource://gre/modules/services-sync/service.js:1272 < WrappedCatch()@resource://services-sync/util.js:77 < sync()@resource://gre/modules/services-sync/service.js:1268 < <file:unknown>
1442901706253	Sync.Resource	DEBUG	PUT Length: 94
1442901706255	Sync.Service	DEBUG	verifyLogin failed: Error: App. Quitting (resource://services-sync/resource.js:409:18) JS Stack trace: waitForSyncCallback@async.js:101:12 < Res__request@resource.js:405:14 < Res_put@resource.js:436:12 < upload@record.js:62:12 < _remoteSetup@service.js:1116:14 < verifyLogin@service.js:745:15 < onNotify@service.js:1011:12 < WrappedNotify@util.js:148:21 < WrappedLock@util.js:103:16 < WrappedCatch@util.js:77:16 < login@service.js:1022:12 < sync/<@service.js:1272:14 < WrappedCatch@util.js:77:16 < sync@service.js:1268:5 < Res_put@resource.js:436:12 < upload@record.js:62:12 < _remoteSetup@service.js:1116:14 < verifyLogin@service.js:745:15 < onNotify@service.js:1011:12 < WrappedNotify@util.js:148:21 < WrappedLock@util.js:103:16 < WrappedCatch@util.js:77:16 < login@service.js:1022:12 < sync/<@service.js:1272:14 < WrappedCatch@util.js:77:16 < sync@service.js:1268:5
1442901706255	Sync.Status	DEBUG	Status.login: success.login => error.login.reason.network
1442901706255	Sync.Status	DEBUG	Status.service: success.status_ok => error.login.failed
1442901706256	Sync.SyncScheduler	DEBUG	Clearing sync triggers and the global score.
1442901706257	Sync.SyncScheduler	DEBUG	Next sync in 3600000 ms.
