1427287262223	Sync.Service	INFO	Loading Weave 1.39.0
1427287262228	Sync.Engine.Clients	DEBUG	Engine initialized
1427287262230	Sync.Engine.Clients	DEBUG	Resetting clients last sync time
1427287262237	Sync.Engine.Bookmarks	DEBUG	Engine initialized
1427287262242	Sync.Engine.Forms	DEBUG	Engine initialized
1427287262246	Sync.Engine.History	DEBUG	Engine initialized
1427287262251	Sync.Engine.Passwords	DEBUG	Engine initialized
1427287262254	Sync.Engine.Prefs	DEBUG	Engine initialized
1427287262258	Sync.Engine.Tabs	DEBUG	Engine initialized
1427287262259	Sync.Engine.Tabs	DEBUG	Resetting tabs last sync time
1427287262265	Sync.Engine.Addons	DEBUG	Engine initialized
1427287262267	Sync.Service	INFO	Mozilla/5.0 (Macintosh; Intel Mac OS X 10.9; rv:37.0) Gecko/20100101 Firefox/37.0
1427287262271	Sync.SyncScheduler	DEBUG	Clearing sync triggers and the global score.
1427287262272	Sync.Status	DEBUG	Status.service: success.status_ok => success.status_ok
1427287262272	Sync.Service	DEBUG	Caching URLs under storage user base: https://sync-210-us-west-2.sync.services.mozilla.com/1.5/21293304/
1427287262273	Sync.Status	DEBUG	Status.service: success.status_ok => success.status_ok
1427287262273	Sync.AddonsReconciler	INFO	Registering as Add-on Manager listener.
1427287262273	Sync.AddonsReconciler	DEBUG	Adding change listener.
1427287262274	Sync.Tracker.History	INFO	Adding Places observer.
1427287262395	Sync.Status	DEBUG	Status.service: success.status_ok => success.status_ok
1427287262397	Sync.Status	DEBUG	Status.service: success.status_ok => success.status_ok
1427287262402	Sync.Engine.Greasemonkey	DEBUG	Engine initialized
1427287262404	Sync.Status	DEBUG	Status.service: success.status_ok => success.status_ok
1427287262463	FirefoxAccounts	DEBUG	got keyPair
1427287262463	FirefoxAccounts	DEBUG	getCertificateSigned: true true
1427287268642	Sync.Status	DEBUG	Status.service: success.status_ok => success.status_ok
1427287268721	Sync.Service	DEBUG	User-Agent: Firefox/37.0 FxSync/1.39.0.20150319212106.
1427287268721	Sync.Service	INFO	Starting sync at 2015-03-25 21:41:08
1427287268721	Sync.Service	DEBUG	In sync: should login.
1427287268722	Sync.Status	DEBUG	Status.service: success.status_ok => success.status_ok
1427287268722	Sync.Status	DEBUG	Status.service: success.status_ok => success.status_ok
1427287273292	Hawk	DEBUG	(Response) /certificate/sign: code: 401 - Status text: Unauthorized
1427287273292	Hawk	DEBUG	Clock offset vs https://api.accounts.firefox.com/v1: -5292
1427287273292	Hawk	DEBUG	Received 401 for /certificate/sign: retrying
1427287273495	Hawk	DEBUG	(Response) /certificate/sign: code: 401 - Status text: Unauthorized
1427287273495	Hawk	DEBUG	Clock offset vs https://api.accounts.firefox.com/v1: -495
1427287273496	FirefoxAccounts	ERROR	error POSTing /certificate/sign: {"code":401,"errno":110,"error":"Unauthorized","message":"Invalid authentication token in request signature","info":"https://github.com/mozilla/fxa-auth-server/blob/master/docs/api.md#response-format"}
1427287273496	FirefoxAccounts	ERROR	HAWK.signCertificate error: {"code":401,"errno":110,"error":"Unauthorized","message":"Invalid authentication token in request signature","info":"https://github.com/mozilla/fxa-auth-server/blob/master/docs/api.md#response-format"}
1427287273496	Sync.BrowserIDManager	ERROR	Authentication error in _fetchTokenForUser: {"details":{"code":401,"errno":110,"error":"Unauthorized","message":"Invalid authentication token in request signature","info":"https://github.com/mozilla/fxa-auth-server/blob/master/docs/api.md#response-format"}}
1427287273497	Sync.Status	DEBUG	Status.login: success.login => error.login.reason.account
1427287273497	Sync.Status	DEBUG	Status.service: success.status_ok => error.login.failed
1427287273497	Sync.SyncScheduler	DEBUG	Clearing sync triggers and the global score.
